<svg width="20" height="21" viewBox="0 0 20 21" fill="none" xmlns="http://www.w3.org/2000/svg">
<path d="M19.45 17.1505L14.86 12.5281C14.1769 13.5987 13.2731 14.5089 12.21 15.1968L16.8 19.8192C17.1514 20.1731 17.628 20.3719 18.125 20.3719C18.6219 20.3719 19.0986 20.1731 19.45 19.8192C19.8014 19.4653 19.9988 18.9853 19.9988 18.4849C19.9988 17.9844 19.8014 17.5044 19.45 17.1505Z" fill="#723EC0"/>
<path d="M15 7.78492C15 6.29108 14.5601 4.83079 13.736 3.58871C12.9119 2.34663 11.7406 1.37854 10.3701 0.806873C8.99968 0.235206 7.49168 0.085632 6.03682 0.377065C4.58197 0.668499 3.2456 1.38785 2.1967 2.44415C1.14781 3.50046 0.433503 4.84627 0.144114 6.3114C-0.145275 7.77654 0.00324964 9.29519 0.570907 10.6753C1.13856 12.0554 2.09986 13.2351 3.33323 14.065C4.56659 14.8949 6.01664 15.3379 7.5 15.3379C9.48913 15.3379 11.3968 14.5421 12.8033 13.1257C14.2098 11.7092 15 9.78809 15 7.78492ZM7.5 13.4446C6.3889 13.4426 5.30331 13.109 4.38043 12.4859C3.45754 11.8628 2.73877 10.9782 2.31494 9.94382C1.8911 8.90947 1.78123 7.77181 1.99921 6.6746C2.21719 5.57739 2.75323 4.56987 3.5396 3.77936C4.32596 2.98884 5.32737 2.45081 6.41727 2.23324C7.50717 2.01568 8.63665 2.12834 9.66299 2.55701C10.6893 2.98567 11.5665 3.71109 12.1835 4.64161C12.8006 5.57212 13.13 6.66596 13.13 7.78492C13.13 8.52901 12.9843 9.2658 12.7012 9.95312C12.4182 10.6404 12.0033 11.2648 11.4804 11.7905C10.9575 12.3162 10.3368 12.7329 9.65375 13.0167C8.97075 13.3005 8.23887 13.4459 7.5 13.4446Z" fill="#723EC0"/>
<path d="M3.12988 7.78491H4.36988C4.37253 6.95066 4.70346 6.1515 5.29016 5.56254C5.87687 4.97358 6.67148 4.64286 7.49988 4.64287V3.38403C6.34088 3.38403 5.22936 3.8477 4.40982 4.67302C3.59029 5.49835 3.12988 6.61773 3.12988 7.78491Z" fill="#723EC0"/>
</svg>
